Conflictividad laboral en la pesca • ACEP
…
# Cargamos la librería dplyr
library(dplyr)

# Definimos la url
url <- acep_bases$rp_mdp

# Descargamos el corpus de notas de la Revista Puerto
rev_puerto <- acep_load_base(url) |> as_tibble()
#> Descargando...

# Imprimimos la base en consola
rev_puerto
#> # A tibble: 7,816 × 6
#>    fecha      titulo                                   bajada nota  imagen link 
#>    <date>     <chr>                                    <chr>  <chr> <chr>  <chr>
#>  1 2020-12-29 ¡Feliz Año 2021 para todos nuestros ami… Con m… "Con… https… http…
#>  2 2020-12-28 Mapa del trabajo esclavo en aguas inter… Un re… "El … https… http…
#>  3 2020-12-24 Plantas piden tener garantizada la prov… En Ch… "El … https… http…
#>  4 2020-12-24 Los obreros navales despiden el año ana… En Ma… "El … https… http…
#>  5 2020-12-23 El incumplimiento del régimen de cuotif… Se ll… "Las… https… http…
#>  6 2020-12-23 Otro fallo ratifica cautelar contra el … La Cá… "La … https… http…
#>  7 2020-12-22 Recomendaciones de SENASA para las expo… Desde… "En … https… http…
#>  8 2020-12-22 Trelew consolida su inserción en la ind… En 20… "Ins… https… http…
#>  9 2020-12-21 El CFP presentó el estado y la captura … En la… "Ant… https… http…
#> 10 2020-12-21 La flota amarilla cierra el año con sos… Puert… "El … https… http…
#> # … with 7,806 more rows
…
# Creamos el diccionario de palabras que refieren a lxs obrerxs del pescado
dicc_soip <- c("soip", "sindicato obrero de la industria del pescado", 
               "sindicato de la industria del pescado", "huelguistas", 
               "obreras de la industria del pescado", "obreras del pescado",
               "obreros de la industria del pescado", "obreros del pescado",
               "fileteros", "fileteras", "obreros del filet", "obreras del filet")

# Creamos la variable con al frecuencia de palabras que refieren a lxs obrerxs del pescado
rev_puerto <- rev_puerto |> mutate(frec_soip = acep_men(rev_puerto$nota, dicc_soip))

# Imprimimos la base en consola
rev_puerto
#> # A tibble: 7,816 × 10
#>    fecha      titulo   bajada nota  imagen link  frec_…¹ frec_…² frec_…³ frec_…⁴
#>    <date>     <chr>    <chr>  <chr> <chr>  <chr>   <dbl>   <dbl>   <dbl>   <dbl>
#>  1 2020-12-29 ¡Feliz … Con m… "Con… https… http…      31       0       0       0
#>  2 2020-12-28 Mapa de… Un re… "El … https… http…    1128       4       0       0
#>  3 2020-12-24 Plantas… En Ch… "El … https… http…     530       3       0       0
#>  4 2020-12-24 Los obr… En Ma… "El … https… http…     483       8       0       0
#>  5 2020-12-23 El incu… Se ll… "Las… https… http…     525       4       2       0
#>  6 2020-12-23 Otro fa… La Cá… "La … https… http…     462       6       0       0
#>  7 2020-12-22 Recomen… Desde… "En … https… http…     650       0       0       0
#>  8 2020-12-22 Trelew … En 20… "Ins… https… http…     830       4       0       0
#>  9 2020-12-21 El CFP … En la… "Ant… https… http…    1434       3       0       0
#> 10 2020-12-21 La flot… Puert… "El … https… http…    1056       4       0       0
#> # … with 7,806 more rows, and abbreviated variable names ¹​frec_palabras,
#> #   ²​frec_conflictos, ³​frec_huelgas, ⁴​frec_soip
…
