Conflictividad laboral en la pesca • ACEP
…
# Cargamos la librería ACEP
library(ACEP)

# Definimos la url
url <- acep_bases$rp_mdp

# Descargamos el corpus de notas de la Revista Puerto
rev_puerto <- acep_load_base(url)

# Imprimimos la base en consola
rev_puerto

#> # A tibble: 7,816 × 6
#>    fecha      titulo                                   bajada nota  imagen link 
#>  * <date>     <chr>                                    <chr>  <chr> <chr>  <chr>
#>  1 2020-12-29 ¡Feliz Año 2021 para todos nuestros ami… Con m… "Con… https… http…
#>  2 2020-12-28 Mapa del trabajo esclavo en aguas inter… Un re… "El … https… http…
#>  3 2020-12-24 Plantas piden tener garantizada la prov… En Ch… "El … https… http…
#>  4 2020-12-24 Los obreros navales despiden el año ana… En Ma… "El … https… http…
#>  5 2020-12-23 El incumplimiento del régimen de cuotif… Se ll… "Las… https… http…
#>  6 2020-12-23 Otro fallo ratifica cautelar contra el … La Cá… "La … https… http…
#>  7 2020-12-22 Recomendaciones de SENASA para las expo… Desde… "En … https… http…
#>  8 2020-12-22 Trelew consolida su inserción en la ind… En 20… "Ins… https… http…
#>  9 2020-12-21 El CFP presentó el estado y la captura … En la… "Ant… https… http…
#> 10 2020-12-21 La flota amarilla cierra el año con sos… Puert… "El … https… http…
#> # ℹ 7,806 more rows
…
# Creamos el diccionario de palabras que refieren a lxs obrerxs del pescado
dicc_soip <- c("soip", "sindicato obrero de la industria del pescado", 
               "sindicato de la industria del pescado", "huelguistas", 
               "obreras de la industria del pescado", "obreras del pescado",
               "obreros de la industria del pescado", "obreros del pescado",
               "fileteros", "fileteras", "obreros del filet", "obreras del filet")

# Creamos la variable con la frecuencia de palabras que 
# refieren a lxs obrerxs del pescado
rev_puerto$frec_soip <- acep_count(rev_puerto$nota, dicc_soip)

# Imprimimos la base en consola
rev_puerto

#> # A tibble: 7,816 × 10
#>    fecha      titulo     bajada nota  imagen link  frec_palabras frec_conflictos
#>    <date>     <chr>      <chr>  <chr> <chr>  <chr>         <int>           <int>
#>  1 2020-12-29 ¡Feliz Añ… Con m… "Con… https… http…            28               0
#>  2 2020-12-28 Mapa del … Un re… "El … https… http…          1142               3
#>  3 2020-12-24 Plantas p… En Ch… "El … https… http…           536               3
#>  4 2020-12-24 Los obrer… En Ma… "El … https… http…           489               7
#>  5 2020-12-23 El incump… Se ll… "Las… https… http…           529               4
#>  6 2020-12-23 Otro fall… La Cá… "La … https… http…           467               6
#>  7 2020-12-22 Recomenda… Desde… "En … https… http…           661               0
#>  8 2020-12-22 Trelew co… En 20… "Ins… https… http…           844               4
#>  9 2020-12-21 El CFP pr… En la… "Ant… https… http…          1454               4
#> 10 2020-12-21 La flota … Puert… "El … https… http…          1073               5
#> # ℹ 7,806 more rows
#> # ℹ 2 more variables: frec_huelgas <int>, frec_soip <int>
…
# Filtramos para quedarnos con los índices mayores a 0 
# en la variable del índice de conflictividad general
rev_puerto <- rev_puerto[rev_puerto$i_conf_gral > 0, ]

# Filtramos para quedarnos con los índices mayores a 0
# en el índice de incidencia de lxs trabajadorxs del pescado
rev_puerto <- rev_puerto[rev_puerto$i_soip > 0, ]

# Imprimimos la base en consola
rev_puerto

#> # A tibble: 387 × 13
#>    fecha      titulo     bajada nota  imagen link  frec_palabras frec_conflictos
#>    <date>     <chr>      <chr>  <chr> <chr>  <chr>         <int>           <int>
#>  1 2020-11-24 Mardi, la… "Con … "Tra… https… http…          1140               1
#>  2 2020-11-16 Cierran l… "El v… "Des… https… http…           384               3
#>  3 2020-11-13 CaIPA-SOI… "Las … "Lo … https… http…           380               3
#>  4 2020-10-30 Conflicto… "El S… "La … https… http…           689               4
#>  5 2020-10-12 Obreros r… "Pert… "Un … https… http…           425               6
#>  6 2020-10-07 Langostin… "El m… "El … https… http…          1120               4
#>  7 2020-09-15 Corvina: … "Áfri… "La … https… http…           669               4
#>  8 2020-08-31 Peón de u… "Es u… "Víc… https… http…           759               5
#>  9 2020-08-26 “La salid… "Lo d… "Due… https… http…          1624               4
#> 10 2020-08-11 Los comed… "Aume… "Es … https… http…          1272               3
#> # ℹ 377 more rows
#> # ℹ 5 more variables: frec_huelgas <int>, frec_soip <int>, i_conf_gral <dbl>,
#> #   i_soip <dbl>, i_huelgas <dbl>
…
