…
``` r
# Cargamos la librería ACEP
library(ACEP)

# Definimos la url
url <- acep_bases$rp_mdp

# Descargamos el corpus de notas de la Revista Puerto
rev_puerto <- acep_load_base(url)

# Imprimimos la base en consola
rev_puerto
```

    #> # A tibble: 7,816 × 6
    #>    fecha      titulo                                   bajada nota  imagen link 
    #>  * <date>     <chr>                                    <chr>  <chr> <chr>  <chr>
    #>  1 2020-12-29 ¡Feliz Año 2021 para todos nuestros ami… Con m… "Con… https… http…
    #>  2 2020-12-28 Mapa del trabajo esclavo en aguas inter… Un re… "El … https… http…
    #>  3 2020-12-24 Plantas piden tener garantizada la prov… En Ch… "El … https… http…
    #>  4 2020-12-24 Los obreros navales despiden el año ana… En Ma… "El … https… http…
    #>  5 2020-12-23 El incumplimiento del régimen de cuotif… Se ll… "Las… https… http…
    #>  6 2020-12-23 Otro fallo ratifica cautelar contra el … La Cá… "La … https… http…
    #>  7 2020-12-22 Recomendaciones de SENASA para las expo… Desde… "En … https… http…
    #>  8 2020-12-22 Trelew consolida su inserción en la ind… En 20… "Ins… https… http…
    #>  9 2020-12-21 El CFP presentó el estado y la captura … En la… "Ant… https… http…
    #> 10 2020-12-21 La flota amarilla cierra el año con sos… Puert… "El … https… http…
    #> # ℹ 7,806 more rows
…
# Creamos la variable con la frecuencia de palabras que 
# refieren a lxs obrerxs del pescado
rev_puerto$frec_soip <- acep_count(rev_puerto$nota, dicc_soip)

# Imprimimos la base en consola
rev_puerto
```

    #> # A tibble: 7,816 × 9
    #>    fecha      titulo      bajada nota  imagen link  frec_conflictos frec_huelgas
    #>    <date>     <chr>       <chr>  <chr> <chr>  <chr>           <int>        <int>
    #>  1 2020-12-29 ¡Feliz Año… Con m… "Con… https… http…               0            0
    #>  2 2020-12-28 Mapa del t… Un re… "El … https… http…               3            0
    #>  3 2020-12-24 Plantas pi… En Ch… "El … https… http…               3            0
    #>  4 2020-12-24 Los obrero… En Ma… "El … https… http…               7            0
    #>  5 2020-12-23 El incumpl… Se ll… "Las… https… http…               4            1
    #>  6 2020-12-23 Otro fallo… La Cá… "La … https… http…               6            0
    #>  7 2020-12-22 Recomendac… Desde… "En … https… http…               0            0
    #>  8 2020-12-22 Trelew con… En 20… "Ins… https… http…               4            0
    #>  9 2020-12-21 El CFP pre… En la… "Ant… https… http…               4            0
    #> 10 2020-12-21 La flota a… Puert… "El … https… http…               5            0
    #> # ℹ 7,806 more rows
    #> # ℹ 1 more variable: frec_soip <int>
…
# Creamos la variable con las palabras que refieren a huelgas
rev_puerto$extract_huelgas <- acep_extract(rev_puerto$nota, dicc_huelgas)

# Creamos la variable con las palabras que 
# refieren a lxs obrerxs del pescado
rev_puerto$extract_soip <- acep_extract(rev_puerto$nota, dicc_soip)

# Imprimimos la base en consola
rev_puerto
```

    #> # A tibble: 7,816 × 12
    #>    fecha      titulo      bajada nota  imagen link  frec_conflictos frec_huelgas
    #>    <date>     <chr>       <chr>  <chr> <chr>  <chr>           <int>        <int>
    #>  1 2020-12-29 ¡Feliz Año… Con m… "Con… https… http…               0            0
    #>  2 2020-12-28 Mapa del t… Un re… "El … https… http…               3            0
    #>  3 2020-12-24 Plantas pi… En Ch… "El … https… http…               3            0
    #>  4 2020-12-24 Los obrero… En Ma… "El … https… http…               7            0
    #>  5 2020-12-23 El incumpl… Se ll… "Las… https… http…               4            1
    #>  6 2020-12-23 Otro fallo… La Cá… "La … https… http…               6            0
    #>  7 2020-12-22 Recomendac… Desde… "En … https… http…               0            0
    #>  8 2020-12-22 Trelew con… En 20… "Ins… https… http…               4            0
    #>  9 2020-12-21 El CFP pre… En la… "Ant… https… http…               4            0
    #> 10 2020-12-21 La flota a… Puert… "El … https… http…               5            0
    #> # ℹ 7,806 more rows
    #> # ℹ 4 more variables: frec_soip <int>, extract_conflictos <chr>,
    #> #   extract_huelgas <chr>, extract_soip <chr>
…
``` r
# Seleccionamos las variables de extracción de palabras clave
rev_puerto_huelgas <- rev_puerto[rev_puerto$extract_huelgas != "",]
rev_puerto_soip <- rev_puerto_huelgas[rev_puerto_huelgas$extract_soip != "",]
rev_puerto_seleccion <- rev_puerto_soip[ , c('extract_conflictos', 'extract_huelgas', 'extract_soip')]

# Imprimimos la base en consola
rev_puerto_seleccion
```

    #> # A tibble: 76 × 3
    #>    extract_conflictos                               extract_huelgas extract_soip
    #>    <chr>                                            <chr>           <chr>       
    #>  1 amenazaba; conflicto; conciliación obligatoria;… conciliación o… obreros del…
    #>  2 piquete; conciliación obligatoria; conflictos; … conciliación o… obreros del…
    #>  3 reclama; reclamo; reclamando; retención de tare… conciliación o… fileteros; …
    #>  4 concentración; quema; paro; exigiera; concentra… un paro         fileteros   
    #>  5 se manifestaron; reclamaron; denunciaron; manif… conciliación o… fileteros   
    #>  6 paro                                             un paro         obreros del…
    #>  7 paro; rechazo; acatamiento; medida de fuerza; p… al paro; al pa… fileteros   
    #>  8 reclaman; reclamo; se manifestaron; exigir; con… conciliación o… fileteros   
    #>  9 paro; paró; paró; lucha; paró; lucha; reclamo    del paro        fileteros   
    #> 10 reclamaban; paro                                 el paro         fileteros   
    #> # ℹ 66 more rows
…
